%YAML 1.1
%TAG !u! tag:unity3d.com,2011:
--- !u!74 &7400000
AnimationClip:
  m_ObjectHideFlags: 0
  m_PrefabParentObject: {fileID: 0}
  m_PrefabInternal: {fileID: 0}
  m_Name: Hit
  serializedVersion: 6
  m_Legacy: 0
  m_Compressed: 0
  m_UseHighQualityCurve: 1
  m_RotationCurves: []
  m_CompressedRotationCurves: []
  m_PositionCurves: []
  m_ScaleCurves:
  - curve:
      serializedVersion: 2
      m_Curve:
      - time: 0
        value: {x: .701283157, y: .5, z: .699999988}
        inSlope: {x: -.199999988, y: 0, z: -.199999988}
        outSlope: {x: -.199999988, y: 0, z: -.199999988}
        tangentMode: 0
      - time: 1
        value: {x: .501283169, y: .5, z: .5}
        inSlope: {x: .141210526, y: 0, z: .254892349}
        outSlope: {x: -.199999988, y: 0, z: -.199999988}
        tangentMode: 0
      m_PreInfinity: 2
      m_PostInfinity: 2
    path: 
  m_FloatCurves:
  - curve:
      serializedVersion: 2
      m_Curve:
      - time: 0
        value: 1
        inSlope: -.360000014
        outSlope: -.360000014
        tangentMode: 10
      - time: 1
        value: .639999986
        inSlope: -.360000014
        outSlope: -.360000014
        tangentMode: 10
      m_PreInfinity: 2
      m_PostInfinity: 2
    attribute: material._Color.r
    path: 
    classID: 23
    script: {fileID: 0}
  - curve:
      serializedVersion: 2
      m_Curve:
      - time: 0
        value: 0
        inSlope: .639999986
        outSlope: .639999986
        tangentMode: 10
      - time: 1
        value: .639999986
        inSlope: .639999986
        outSlope: .639999986
        tangentMode: 10
      m_PreInfinity: 2
      m_PostInfinity: 2
    attribute: material._Color.g
    path: 
    classID: 23
    script: {fileID: 0}
  - curve:
      serializedVersion: 2
      m_Curve:
      - time: 0
        value: 0
        inSlope: .639999986
        outSlope: .639999986
        tangentMode: 10
      - time: 1
        value: .639999986
        inSlope: .639999986
        outSlope: .639999986
        tangentMode: 10
      m_PreInfinity: 2
      m_PostInfinity: 2
    attribute: material._Color.b
    path: 
    classID: 23
    script: {fileID: 0}
  - curve:
      serializedVersion: 2
      m_Curve:
      - time: 0
        value: 0
        inSlope: .360000014
        outSlope: .360000014
        tangentMode: 10
      - time: 1
        value: .360000014
        inSlope: .360000014
        outSlope: .360000014
        tangentMode: 10
      m_PreInfinity: 2
      m_PostInfinity: 2
    attribute: material._Color.a
    path: 
    classID: 23
    script: {fileID: 0}
  m_PPtrCurves: []
  m_SampleRate: 60
  m_WrapMode: 0
  m_Bounds:
    m_Center: {x: 0, y: 0, z: 0}
    m_Extent: {x: 0, y: 0, z: 0}
  m_ClipBindingConstant:
    genericBindings:
    - path: 0
      attribute: 3
      script: {fileID: 0}
      classID: 4
      customType: 0
      isPPtrCurve: 0
    - path: 0
      attribute: 1303350129
      script: {fileID: 0}
      classID: 23
      customType: 22
      isPPtrCurve: 0
    - path: 0
      attribute: 1571785585
      script: {fileID: 0}
      classID: 23
      customType: 22
      isPPtrCurve: 0
    - path: 0
      attribute: 1840221041
      script: {fileID: 0}
      classID: 23
      customType: 22
      isPPtrCurve: 0
    - path: 0
      attribute: 2108656497
      script: {fileID: 0}
      classID: 23
      customType: 22
      isPPtrCurve: 0
    pptrCurveMapping: []
  m_AnimationClipSettings:
    serializedVersion: 2
    m_StartTime: 0
    m_StopTime: 1
    m_OrientationOffsetY: 0
    m_Level: 0
    m_CycleOffset: 0
    m_LoopTime: 0
    m_LoopBlend: 0
    m_LoopBlendOrientation: 0
    m_LoopBlendPositionY: 0
    m_LoopBlendPositionXZ: 0
    m_KeepOriginalOrientation: 0
    m_KeepOriginalPositionY: 1
    m_KeepOriginalPositionXZ: 0
    m_HeightFromFeet: 0
    m_Mirror: 0
  m_EditorCurves:
  - curve:
      serializedVersion: 2
      m_Curve:
      - time: 0
        value: 1
        inSlope: -.360000014
        outSlope: -.360000014
        tangentMode: 10
      - time: 1
        value: .639999986
        inSlope: -.360000014
        outSlope: -.360000014
        tangentMode: 10
      m_PreInfinity: 2
      m_PostInfinity: 2
    attribute: material._Color.r
    path: 
    classID: 23
    script: {fileID: 0}
  - curve:
      serializedVersion: 2
      m_Curve:
      - time: 0
        value: 0
        inSlope: .639999986
        outSlope: .639999986
        tangentMode: 10
      - time: 1
        value: .639999986
        inSlope: .639999986
        outSlope: .639999986
        tangentMode: 10
      m_PreInfinity: 2
      m_PostInfinity: 2
    attribute: material._Color.g
    path: 
    classID: 23
    script: {fileID: 0}
  - curve:
      serializedVersion: 2
      m_Curve:
      - time: 0
        value: 0
        inSlope: .639999986
        outSlope: .639999986
        tangentMode: 10
      - time: 1
        value: .639999986
        inSlope: .639999986
        outSlope: .639999986
        tangentMode: 10
      m_PreInfinity: 2
      m_PostInfinity: 2
    attribute: material._Color.b
    path: 
    classID: 23
    script: {fileID: 0}
  - curve:
      serializedVersion: 2
      m_Curve:
      - time: 0
        value: 0
        inSlope: .360000014
        outSlope: .360000014
        tangentMode: 10
      - time: 1
        value: .360000014
        inSlope: .360000014
        outSlope: .360000014
        tangentMode: 10
      m_PreInfinity: 2
      m_PostInfinity: 2
    attribute: material._Color.a
    path: 
    classID: 23
    script: {fileID: 0}
  - curve:
      serializedVersion: 2
      m_Curve:
      - time: 0
        value: .701283157
        inSlope: -.199999988
        outSlope: -.199999988
        tangentMode: 17
      - time: 1
        value: .501283169
        inSlope: .141210526
        outSlope: -.199999988
        tangentMode: 1
      m_PreInfinity: 2
      m_PostInfinity: 2
    attribute: m_LocalScale.x
    path: 
    classID: 4
    script: {fileID: 0}
  - curve:
      serializedVersion: 2
      m_Curve:
      - time: 0
        value: .5
        inSlope: 0
        outSlope: 0
        tangentMode: 10
      - time: 1
        value: .5
        inSlope: 0
        outSlope: 0
        tangentMode: 10
      m_PreInfinity: 2
      m_PostInfinity: 2
    attribute: m_LocalScale.y
    path: 
    classID: 4
    script: {fileID: 0}
  - curve:
      serializedVersion: 2
      m_Curve:
      - time: 0
        value: .699999988
        inSlope: -.199999988
        outSlope: -.199999988
        tangentMode: 10
      - time: 1
        value: .5
        inSlope: .254892349
        outSlope: -.199999988
        tangentMode: 1
      m_PreInfinity: 2
      m_PostInfinity: 2
    attribute: m_LocalScale.z
    path: 
    classID: 4
    script: {fileID: 0}
  m_EulerEditorCurves: []
  m_HasGenericRootTransform: 0
  m_HasMotionFloatCurves: 0
  m_GenerateMotionCurves: 0
  m_Events: []
